{
  "name": "puppet-claymore",
  "version": "0.2.0",
  "author": "Sander Bilo",
  "summary": "Module for installing Claymore ethereum miner on Ubuntu",
  "license": "Apache-2.0",
  "source": "https://gitlab.com/sbilo/puppet-claymore.git",
  "project_page": null,
  "issues_url": null,
  "dependencies": [
    {
      "name": "puppetlabs-stdlib",
      "version_requirement": ">= 1.0.0"
    },
    {
      "name": "puppet-archive",
      "version_requirement": ">= 1.0.0"
    }
  ],
  "data_provider": null
}

